keyboard.vcd
$date
	Mon Sep  8 19:02:10 2025
$end
$version
	Icarus Verilog
$end
$timescale
	1ps
$end
$scope module keyboard_tb $end
$var wire 1 ! led_on $end
$var wire 5 " key_index [4:0] $end
$var wire 1 # key_click $end
$var wire 4 $ kb_C [3:0] $end
$var reg 1 % clk $end
$var reg 4 & kb_L [3:0] $end
$var reg 1 ' reset $end
$scope module dut $end
$var wire 1 % clk $end
$var wire 4 ( kb_L [3:0] $end
$var wire 1 ' reset $end
$var reg 4 ) col [3:0] $end
$var reg 4 * kb_C [3:0] $end
$var reg 1 # key_click $end
$var reg 5 + key_index [4:0] $end
$var reg 16 , key_matrix [15:0] $end
$var reg 1 ! led_on $end
$var reg 1 - prev_any_key $end
$var integer 32 . i [31:0] $end
$scope function coord_to_letter $end
$var reg 2 / col_in [1:0] $end
$var reg 2 0 row_in [1:0] $end
$upscope $end
$upscope $end
$scope task press_key_once $end
$var reg 2 1 col [1:0] $end
$var reg 2 2 row [1:0] $end
$var integer 32 3 i [31:0] $end
$upscope $end
$upscope $end
$enddefinitions $end
$comment Show the parameter values. $end
$dumpall
$end
#0
$dumpvars
bx 3
bx 2
bx 1
bx 0
bx /
bx .
x-
bx ,
bx +
bx *
bx )
b1111 (
1'
b1111 &
0%
bx $
x#
bx "
x!
$end
#10000
0#
0-
0!
b1111 $
b1111 *
b0 ,
b0 )
1%
#20000
0%
#30000
1%
#40000
0%
#50000
1%
#60000
0%
#70000
1%
#80000
0%
#90000
b1110 $
b1110 *
b1 )
b100 .
0'
1%
#100000
0%
#110000
b1101 $
b1101 *
b10 )
b100 .
1%
#120000
0%
#130000
b1011 $
b1011 *
b11 )
b100 .
1%
#140000
0%
#150000
b111 $
b111 *
b100 )
b100 .
1%
#160000
0%
#170000
b1111 $
b1111 *
b101 )
b100 .
1%
#180000
0%
#190000
b110 )
b100 .
1%
#200000
0%
#210000
b111 )
b100 .
1%
#220000
0%
#230000
b1000 )
b100 .
1%
#240000
0%
#250000
b1001 )
b100 .
1%
#260000
0%
#270000
b1010 )
b100 .
1%
#280000
0%
#290000
b1011 )
b100 .
b0 3
b10 2
b1 1
1%
#300000
0%
#310000
b1100 )
b100 .
b1 3
1%
#320000
0%
#330000
b1101 )
b100 .
b10 3
1%
#340000
0%
#350000
b1110 )
b100 .
b11 3
1%
#360000
0%
#370000
b1111 )
b100 .
b100 3
1%
#380000
0%
#390000
b0 )
b100 .
b101 3
1%
#400000
0%
#410000
b1110 $
b1110 *
b1 )
b100 .
b110 3
1%
#420000
0%
#430000
b1101 $
b1101 *
b10 )
b100 .
b111 3
1%
#440000
0%
#450000
b10000000000 ,
b1011 $
b1011 *
b11 )
b100 .
b1011 &
b1011 (
1%
#460000
0%
#470000
1-
1#
1!
b111 $
b111 *
b100 )
b100 .
b1111 &
b1111 (
1%
#480000
0%
#490000
0#
b1111 $
b1111 *
b101 )
b100 .
1%
#500000
0%
#510000
b110 )
b100 .
1%
#520000
0%
#530000
b111 )
b100 .
1%
#540000
0%
#550000
b1000 )
b100 .
1%
#560000
0%
#570000
b1001 )
b100 .
1%
#580000
0%
#590000
b1010 )
b100 .
1%
#600000
0%
#610000
b1011 )
b100 .
1%
#620000
0%
#630000
b1100 )
b100 .
1%
#640000
0%
#650000
b1101 )
b100 .
1%
#660000
0%
#670000
b1110 )
b100 .
b0 3
b0 2
b11 1
1%
#680000
0%
#690000
b1111 )
b100 .
b1 3
1%
#700000
0%
#710000
b0 )
b100 .
b10 3
1%
#720000
0%
#730000
b1110 $
b1110 *
b1 )
b100 .
b11 3
1%
#740000
0%
#750000
b1101 $
b1101 *
b10 )
b100 .
b100 3
1%
#760000
0%
#770000
b0 ,
b1011 $
b1011 *
b11 )
b100 .
b101 3
1%
#780000
0%
#790000
0-
0!
b111 $
b111 *
b100 )
b100 .
b110 3
1%
#800000
0%
#810000
b1111 $
b1111 *
b101 )
b100 .
b1110 &
b1110 (
1%
#820000
0%
#830000
b110 )
b100 .
b1111 &
b1111 (
1%
#840000
0%
#850000
b111 )
b100 .
1%
#860000
0%
#870000
b1000 )
b100 .
1%
#880000
0%
#890000
b1001 )
b100 .
1%
#900000
0%
#910000
b1010 )
b100 .
1%
#920000
0%
#930000
b1011 )
b100 .
1%
#940000
0%
#950000
b1100 )
b100 .
1%
#960000
0%
#970000
b1101 )
b100 .
1%
#980000
0%
#990000
b1110 )
b100 .
1%
#1000000
0%
#1010000
b1111 )
b100 .
1%
#1020000
0%
#1030000
b0 )
b100 .
1%
